<svg width="680" height="305" viewBox="0 0 680 305" fill="none" xmlns="http://www.w3.org/2000/svg">
<path d="M27.8004 226.3H126.7V279.6C126.7 287.414 129.674 293.338 134.273 297.288C138.84 301.21 144.906 303.1 151 303.1C156.904 303.1 162.963 301.205 167.571 297.293C172.213 293.353 175.3 287.431 175.3 279.6V226.3H189C205.082 226.3 213.7 214.774 213.7 203.2C213.7 191.625 205.082 180.1 189 180.1H175.3V29.9996C175.3 21.6503 172.474 14.7416 167.494 9.92172C162.519 5.10793 155.523 2.49963 147.4 2.49963H142.2C136.015 2.49963 130.463 3.63444 125.551 6.22256C120.634 8.81347 116.449 12.8128 112.931 18.4004L112.927 18.4072L112.923 18.414L6.9229 190.813C3.63149 196.162 1.90039 201.234 1.90039 206C1.90039 212.051 4.40444 217.189 8.97366 220.779C13.5084 224.342 19.9665 226.3 27.8004 226.3ZM491.863 226.3H590.763V279.6C590.763 287.414 593.736 293.338 598.336 297.288C602.902 301.21 608.968 303.1 615.063 303.1C620.966 303.1 627.025 301.205 631.634 297.293C636.276 293.353 639.363 287.431 639.363 279.6V226.3H653.063C669.144 226.3 677.763 214.774 677.763 203.2C677.763 191.625 669.144 180.1 653.063 180.1H639.363V29.9996C639.363 21.6503 636.537 14.7416 631.556 9.92172C626.582 5.10793 619.586 2.49963 611.463 2.49963H606.263C600.078 2.49963 594.526 3.63444 589.614 6.22256C584.696 8.81347 580.512 12.8128 576.994 18.4004L576.989 18.4072L576.985 18.414L470.985 190.813C467.694 196.162 465.963 201.234 465.963 206C465.963 212.051 468.467 217.189 473.036 220.779C477.571 224.342 484.029 226.3 491.863 226.3ZM126.7 180.1H64.8597L126.7 77.7813V180.1ZM239.132 152.8C239.132 200.768 248.66 238.301 265.939 263.889C283.261 289.543 308.322 303.1 339.032 303.1C369.741 303.1 394.802 289.543 412.125 263.889C429.403 238.301 438.932 200.768 438.932 152.8C438.932 106.024 429.4 68.3988 412.131 42.4193C394.823 16.3808 369.769 2.09961 339.032 2.09961C308.295 2.09961 283.241 16.3808 265.932 42.4193C248.663 68.3988 239.132 106.024 239.132 152.8ZM287.732 152.8C287.732 108.757 296.107 82.7092 306.658 67.7128C317.17 52.7727 329.907 48.6996 339.032 48.6996C348.157 48.6996 360.893 52.7727 371.405 67.7128C381.956 82.7092 390.332 108.757 390.332 152.8C390.332 197.651 381.953 223.588 371.413 238.275C360.925 252.891 348.202 256.5 339.032 256.5C329.861 256.5 317.139 252.891 306.65 238.275C296.111 223.588 287.732 197.651 287.732 152.8ZM590.763 180.1H528.922L590.763 77.7814V180.1Z" stroke="#FF6900" stroke-width="3"/>
</svg>
