<svg width="245" height="114" viewBox="0 0 245 114" fill="none" xmlns="http://www.w3.org/2000/svg">
<g clip-path="url(#clip0)">
<g opacity="0.5" filter="url(#filter0_f)">
<rect x="21" y="40" width="185" height="35" fill="url(#paint0_linear)"/>
</g>
<g filter="url(#filter1_d)">
<rect x="109" y="54" width="33" height="6" rx="3" fill="white"/>
<path d="M123 43L105 57L123 71" stroke="white" stroke-width="6" stroke-linecap="round" stroke-linejoin="round"/>
</g>
</g>
<defs>
<filter id="filter0_f" x="-9" y="10" width="245" height="95" filterUnits="userSpaceOnUse" color-interpolation-filters="sRGB">
<feFlood flood-opacity="0" result="BackgroundImageFix"/>
<feBlend mode="normal" in="SourceGraphic" in2="BackgroundImageFix" result="shape"/>
<feGaussianBlur stdDeviation="15" result="effect1_foregroundBlur"/>
</filter>
<filter id="filter1_d" x="92" y="29" width="71" height="56" filterUnits="userSpaceOnUse" color-interpolation-filters="sRGB">
<feFlood flood-opacity="0" result="BackgroundImageFix"/>
<feColorMatrix in="SourceAlpha" type="matrix" values="0 0 0 0 0 0 0 0 0 0 0 0 0 0 0 0 0 0 127 0" result="hardAlpha"/>
<feOffset/>
<feGaussianBlur stdDeviation="5"/>
<feColorMatrix type="matrix" values="0 0 0 0 1 0 0 0 0 0.54 0 0 0 0 0 0 0 0 1 0"/>
<feBlend mode="normal" in2="BackgroundImageFix" result="effect1_dropShadow"/>
<feBlend mode="normal" in="SourceGraphic" in2="effect1_dropShadow" result="shape"/>
</filter>
<linearGradient id="paint0_linear" x1="206" y1="75.0011" x2="21" y2="75.0011" gradientUnits="userSpaceOnUse">
<stop stop-color="#FF6900" stop-opacity="0"/>
<stop offset="0.509551" stop-color="#FF6900"/>
<stop offset="1" stop-color="#FF6900" stop-opacity="0"/>
</linearGradient>
<clipPath id="clip0">
<rect width="245" height="114" fill="white"/>
</clipPath>
</defs>
</svg>
