<svg width="45" height="45" viewBox="0 0 70 70" fill="none" xmlns="http://www.w3.org/2000/svg">
<g clip-path="url(#clip0)">
<g filter="url(#filter0_ddd)">
<path d="M21.4647 61.4213C20.5709 61.4213 20.0215 60.9093 19.9177 59.9807C19.8573 59.4365 19.9683 58.9986 20.247 58.6783C20.7138 58.1431 21.4754 58.127 22.0869 58.1137C22.2804 58.1092 22.4623 58.1056 22.6061 58.0869C40.0865 55.8488 54.346 42.9375 58.0906 25.9586C58.5894 23.7 58.0267 22.32 56.3226 21.6171C55.885 21.4369 55.4536 21.3459 55.04 21.3459C53.6901 21.3459 52.5567 22.3503 52.0099 24.0336C51.7871 24.7187 51.5697 25.4243 51.3585 26.1076C50.5614 28.6909 49.7378 31.3616 48.4091 33.7336C42.3586 44.5262 32.821 50.6286 20.0624 51.8721C19.8991 51.8882 19.7437 51.8962 19.5999 51.8962C18.3139 51.8962 17.5799 51.2539 17.2879 49.8749C16.9337 48.197 16.5299 46.4976 16.1394 44.8545C15.7932 43.3987 15.4355 41.893 15.1125 40.4024C14.9731 39.7628 15.0681 38.819 15.519 38.2526C15.6858 38.0394 15.9627 37.9297 16.34 37.9297C16.7793 37.9297 17.3358 38.0697 17.6917 38.2089C18.3556 38.4676 19.0142 38.5996 19.6497 38.5996C21.1328 38.5996 22.3283 37.9002 23.0161 36.6291C24.0928 34.6479 23.5824 32.4463 21.7762 31.2733C21.1505 30.8666 20.4831 30.6614 19.7925 30.6614C18.5491 30.6614 17.2905 31.3402 16.2485 32.573C15.984 32.8852 15.3131 33.4758 14.666 33.4758C14.6066 33.4758 14.5471 33.4704 14.4903 33.4606C13.8024 33.3393 13.2566 32.5186 13.1279 31.9727C12.9477 31.2305 12.7675 30.4857 12.5865 29.7408C11.2729 24.3262 9.91495 18.7278 8.70166 13.1883C8.38214 11.7316 8.67769 10.34 9.53241 9.27048C10.3916 8.19558 11.7291 7.58008 13.2016 7.58008C13.5495 7.58008 13.9063 7.61487 14.2604 7.68266C15.4622 7.91102 16.6843 8.18398 17.8932 8.49352C18.794 8.72366 19.4437 8.99752 19.6852 9.58804C19.931 10.1884 19.6594 10.8476 19.1411 11.7164C18.4373 12.8975 18.2349 14.1749 18.5713 15.3104C18.8588 16.2801 19.5352 17.0668 20.4769 17.5262C21.0866 17.8242 21.7185 17.9749 22.3558 17.9749C23.4377 17.9749 24.446 17.5423 25.1969 16.7573C25.9806 15.9375 26.3853 14.8162 26.3374 13.5995C26.2921 12.464 26.3427 11.8092 26.7492 11.3837C26.9959 11.1259 27.3341 11.001 27.785 11.001C28.1214 11.001 28.5403 11.0661 29.2299 11.2258C29.6817 11.3311 30.1326 11.4345 30.5834 11.5389C32.5032 11.9805 34.4887 12.4372 36.4165 12.9911C36.9472 13.1428 37.6475 13.4488 37.9661 14.0384C38.1401 14.3622 38.1729 14.7261 38.0602 15.0928C37.9448 15.4674 37.5996 16.0963 36.5869 16.0963C36.2736 16.0963 35.9691 16.0365 35.7464 15.9928L35.678 15.9794C34.0227 15.6663 32.4207 15.2739 30.7246 14.8591C30.3323 14.7627 29.9373 14.6664 29.5406 14.57C28.243 18.7795 25.6557 21.18 22.3807 21.18C21.7549 21.18 21.1044 21.0917 20.4458 20.9177C18.6023 20.4289 17.1787 19.3825 16.3293 17.892C15.3388 16.1552 15.1435 13.8805 15.7559 11.2847C15.6104 11.2481 15.4666 11.2115 15.3246 11.175C14.5888 10.9859 13.893 10.8066 13.1918 10.7557C13.1474 10.7521 13.1039 10.7513 13.0613 10.7513C12.6522 10.7513 12.3167 10.9002 12.0921 11.183C11.7868 11.5666 11.6989 12.174 11.8507 12.8484C12.582 16.099 13.3622 19.3995 14.1166 22.5903C14.4024 23.799 14.6882 25.0077 14.9722 26.2164C15.14 26.9345 15.3113 27.6437 15.5101 28.4643C15.5296 28.5437 15.5483 28.6231 15.5678 28.7043C17.0899 27.8934 18.4941 27.4983 19.8414 27.4983C21.2899 27.4983 22.6753 27.9728 23.9596 28.9077C25.5785 30.0869 26.5007 31.7675 26.7004 33.9004C26.8868 35.8994 26.4084 37.588 25.2776 38.9189C23.9241 40.513 21.6475 41.5058 18.6689 41.8082C18.7488 42.1517 18.8287 42.4942 18.9077 42.8367C19.3363 44.685 19.7792 46.5949 20.2772 48.4449C20.3996 48.5065 20.6615 48.5877 20.87 48.5877C20.8958 48.5877 20.9126 48.5859 20.9224 48.585C30.1006 47.5083 37.5703 43.3407 43.1282 36.1973C45.9603 32.557 47.9076 28.3377 48.9159 23.6563C49.6393 20.3013 51.9922 18.1337 54.9113 18.1337C55.309 18.1337 55.7164 18.1738 56.122 18.2532C58.0054 18.6225 59.4902 19.5645 60.4177 20.9775C61.379 22.4431 61.6585 24.2834 61.2254 26.2994C60.2455 30.8621 58.5556 35.2286 56.201 39.2802C53.9013 43.2355 51.0176 46.809 47.6298 49.9016C44.2403 52.9952 40.4273 55.533 36.2966 57.4455C32.0639 59.4044 27.5853 60.664 22.9842 61.1894C22.8466 61.2054 22.6762 61.2411 22.4952 61.2795C22.1747 61.3446 21.8135 61.4213 21.4647 61.4213Z" fill="#FFB7B7"/>
<path d="M13.2021 8.15964C13.5101 8.15964 13.8278 8.18908 14.1527 8.25152C15.3598 8.48077 16.5624 8.75017 17.7508 9.05435C19.4061 9.47717 19.5526 9.8991 18.6473 11.4173C17.1224 13.9748 17.8103 16.8685 20.2262 18.0469C20.9363 18.3939 21.6605 18.5536 22.3572 18.5536C24.8726 18.5536 27.0302 16.468 26.9148 13.5761C26.8554 12.0997 26.9645 11.5806 27.7864 11.5806C28.1059 11.5806 28.5337 11.6591 29.1018 11.7902C31.4955 12.3477 33.9026 12.8705 36.2599 13.5475C36.7711 13.6938 37.7617 14.1041 37.5105 14.9195C37.3649 15.3922 36.9833 15.5144 36.5883 15.5144C36.3007 15.5144 36.0061 15.4502 35.7886 15.4074C33.5839 14.9899 31.413 14.4172 29.1417 13.8758C27.9515 18.2441 25.4921 20.5981 22.3821 20.5981C21.807 20.5981 21.2096 20.5178 20.5946 20.3546C16.708 19.3243 15.0988 15.7705 16.463 10.8545C15.3846 10.6172 14.3231 10.2541 13.235 10.1756C13.1764 10.1712 13.1187 10.1694 13.0628 10.1694C11.7092 10.1694 10.93 11.3754 11.2894 12.9748C12.2941 17.4403 13.3663 21.8943 14.4118 26.3482C14.6444 27.3437 14.8885 28.3374 15.1885 29.5827C16.7603 28.6425 18.3144 28.076 19.8437 28.076C21.1218 28.076 22.383 28.4712 23.6229 29.3748C25.1468 30.4854 25.9501 32.0545 26.1285 33.9527C26.5279 38.2354 23.6034 40.9186 17.9567 41.2835C18.5461 43.7892 19.0937 46.2717 19.7576 48.7203C19.8206 48.9523 20.4517 49.1646 20.8733 49.1646C20.9167 49.1646 20.9576 49.1628 20.9948 49.1574C30.2015 48.0781 37.8025 43.9836 43.5849 36.5521C46.5449 32.7476 48.47 28.4748 49.4827 23.7764C50.1644 20.616 52.3007 18.7106 54.9137 18.7106C55.2722 18.7106 55.6397 18.7463 56.0133 18.8194C59.6062 19.5232 61.4612 22.4562 60.6632 26.1733C56.7278 44.4885 41.3864 58.5041 22.9173 60.6111C22.4948 60.6593 21.9392 60.8413 21.4661 60.8413C20.9771 60.8413 20.5741 60.6477 20.4925 59.9153C20.3283 58.4292 21.8176 58.7744 22.683 58.6611C40.4252 56.39 54.8515 43.3333 58.6556 26.0832C59.2174 23.5374 58.5242 21.8969 56.5432 21.0798C56.0258 20.8666 55.5216 20.7649 55.0424 20.7649C53.4261 20.7649 52.0912 21.9201 51.4637 23.8523C50.4084 27.0984 49.5573 30.505 47.9091 33.4478C41.7858 44.3672 32.2695 50.0985 20.0079 51.2938C19.8641 51.3081 19.7292 51.3152 19.6005 51.3152C18.626 51.3152 18.0925 50.8871 17.8529 49.7524C17.1828 46.5803 16.3645 43.4448 15.6766 40.2764C15.5612 39.7492 15.6562 39.0061 15.9695 38.6127C16.0281 38.5378 16.1657 38.5066 16.3405 38.5066C16.6831 38.5066 17.1677 38.6234 17.4828 38.7465C18.223 39.0355 18.9561 39.1765 19.6493 39.1765C21.2931 39.1765 22.7194 38.3861 23.5226 36.9036C24.7403 34.6628 24.143 32.1169 22.0892 30.7833C21.3587 30.3088 20.5777 30.0786 19.7922 30.0786C18.3925 30.0786 16.9787 30.8101 15.8089 32.1945C15.5337 32.5201 15.0234 32.893 14.6657 32.893C14.6391 32.893 14.6133 32.8912 14.5885 32.8868C14.2246 32.8225 13.7888 32.2606 13.6885 31.8359C12.177 25.5891 10.6415 19.3448 9.26669 13.0622C8.66404 10.3157 10.5803 8.15964 13.2021 8.15964ZM13.2021 7C11.5539 7 10.0531 7.69489 9.08474 8.90538C8.11731 10.115 7.78181 11.6796 8.1395 13.312C9.35367 18.8578 10.7125 24.4597 12.027 29.877C12.2072 30.621 12.3882 31.365 12.5684 32.1089C12.7335 32.8029 13.4071 33.8573 14.3905 34.0312C14.4829 34.0473 14.5752 34.0553 14.6675 34.0553C15.7219 34.0553 16.5935 33.0625 16.6893 32.9492C17.6204 31.8475 18.7227 31.241 19.794 31.2419C20.3727 31.2419 20.9345 31.4167 21.4644 31.761C23.006 32.7619 23.4365 34.6494 22.5117 36.3514C21.9286 37.4281 20.9123 38.0204 19.6511 38.0204C19.0875 38.0204 18.499 37.9027 17.9017 37.6689C17.5254 37.5218 16.8908 37.3505 16.3414 37.3505C15.6464 37.3505 15.2666 37.6431 15.0686 37.892C14.4793 38.6332 14.3861 39.7768 14.5494 40.527C14.8743 42.0221 15.232 43.5305 15.579 44.989C15.9686 46.6285 16.3716 48.3243 16.7239 49.995C17.0719 51.6417 18.0402 52.4767 19.6005 52.4767C19.7629 52.4767 19.9378 52.4677 20.1197 52.4499C33.0762 51.1868 42.763 44.9863 48.912 34.0187C50.2709 31.5924 51.1043 28.8914 51.9102 26.2795C52.1205 25.5989 52.3371 24.8942 52.559 24.2135C53.032 22.7595 53.9365 21.9255 55.0415 21.9255C55.3796 21.9255 55.7373 22.0022 56.1048 22.1538C57.1175 22.5713 58.0796 23.3349 57.5284 25.8326C53.8371 42.5733 39.7746 55.3035 22.5365 57.5104C22.4203 57.5256 22.2525 57.5291 22.0759 57.5327C21.3889 57.547 20.4481 57.5675 19.8144 58.2945C19.4239 58.7423 19.2668 59.3301 19.3458 60.0429C19.4825 61.2685 20.275 62 21.4661 62C21.8753 62 22.2676 61.917 22.6129 61.8439C22.7797 61.8082 22.9368 61.7752 23.0478 61.7627C27.7092 61.2311 32.2473 59.9546 36.5359 57.9698C40.7208 56.0332 44.5825 53.4624 48.0156 50.3287C51.4478 47.1958 54.3687 43.5769 56.6976 39.5699C59.0834 35.4665 60.7955 31.042 61.7887 26.4195C62.2546 24.2474 61.9467 22.2546 60.8984 20.6561C59.884 19.1102 58.2704 18.0817 56.2317 17.6821C55.7897 17.5956 55.345 17.5518 54.911 17.5518C53.3241 17.5518 51.8649 18.1227 50.6916 19.2039C49.544 20.2609 48.7345 21.7578 48.3529 23.5311C47.3623 28.1269 45.4514 32.2668 42.6743 35.8376C37.2167 42.8525 29.8802 46.9461 20.8679 48.0049C20.8369 48.004 20.7969 47.9987 20.7552 47.9906C20.2919 46.244 19.8748 44.4466 19.4709 42.7027C19.4399 42.5698 19.4097 42.4377 19.3786 42.3048C20.544 42.1434 21.5993 41.8749 22.5285 41.502C23.851 40.9712 24.9232 40.2282 25.7175 39.2933C26.9353 37.8589 27.474 35.975 27.2761 33.8448C27.1713 32.728 26.8749 31.7093 26.3938 30.8172C25.8924 29.8851 25.1868 29.084 24.2992 28.4364C22.9146 27.4275 21.4155 26.9164 19.8428 26.9164C18.5984 26.9164 17.3177 27.2268 15.9589 27.8602C15.8071 27.2313 15.6695 26.6595 15.5346 26.0832C15.2506 24.8727 14.9639 23.6632 14.6781 22.4527C13.9237 19.2637 13.1444 15.9658 12.414 12.7188C12.303 12.2237 12.3509 11.7849 12.5435 11.5431C12.5853 11.4905 12.714 11.329 13.0619 11.329C13.0912 11.329 13.1205 11.3299 13.1506 11.3326C13.7675 11.3772 14.4039 11.5351 15.0749 11.7073C14.5823 14.2192 14.8379 16.4386 15.8302 18.1789C16.7585 19.8069 18.3047 20.9478 20.2999 21.4768C21.0064 21.6641 21.7067 21.7587 22.3821 21.7587C24.2273 21.7587 25.9243 21.0486 27.2894 19.7043C28.4059 18.6053 29.2899 17.113 29.9254 15.2584C30.1491 15.3128 30.371 15.3673 30.5902 15.4208C32.2925 15.8374 33.9008 16.2307 35.5712 16.5474L35.6377 16.5608C35.8836 16.609 36.22 16.675 36.5892 16.675C37.5841 16.675 38.3412 16.1469 38.6137 15.2638C38.7735 14.7455 38.7264 14.2255 38.4761 13.7616C38.0625 12.9945 37.2149 12.6153 36.5768 12.4325C34.6348 11.875 32.6422 11.4164 30.7154 10.9731C30.2645 10.8696 29.8145 10.7662 29.3636 10.6609C28.626 10.4905 28.1698 10.4209 27.7873 10.4209C27.1793 10.4209 26.6912 10.6101 26.3353 10.982C25.7317 11.6136 25.7184 12.5128 25.7628 13.6224C25.8054 14.6786 25.4566 15.6491 24.7829 16.3547C24.1421 17.0247 23.2812 17.394 22.3581 17.394C21.8096 17.394 21.262 17.2628 20.7321 17.0032C19.9262 16.6099 19.3706 15.9667 19.1265 15.1434C18.8363 14.1648 19.0183 13.0524 19.6378 12.0123C20.1162 11.2104 20.5946 10.2782 20.22 9.36478C19.849 8.46026 18.8984 8.14983 18.0357 7.9295C16.8162 7.61729 15.5816 7.34165 14.3675 7.1115C13.9787 7.03747 13.5864 7 13.2021 7Z" fill="#F01900"/>
<path d="M38.4817 32.3378C36.6365 32.3378 34.8942 31.6197 33.5762 30.3164C32.2173 28.9721 31.4656 27.2095 31.4576 25.3549C31.4496 23.4701 32.2085 21.6628 33.5939 20.2686C34.9803 18.8725 36.8016 18.1045 38.7222 18.1045C40.5781 18.1045 42.3195 18.8297 43.626 20.1472C44.9262 21.4594 45.6389 23.2256 45.631 25.1212C45.623 27.0712 44.8614 28.8954 43.4857 30.2593C42.1358 31.5991 40.358 32.3378 38.4817 32.3378ZM38.6344 21.2569C37.5542 21.2569 36.5317 21.694 35.7542 22.4888C35.0016 23.2587 34.596 24.2747 34.6128 25.3505C34.6297 26.4138 35.0593 27.403 35.8217 28.1336C36.5273 28.8107 37.4539 29.1844 38.4302 29.1844C39.5113 29.1844 40.5391 28.7411 41.3254 27.9347C42.8795 26.3424 42.8982 23.9642 41.368 22.4041C40.6411 21.6646 39.6701 21.2569 38.6344 21.2569Z" fill="#FFB7B7"/>
<path d="M38.7222 18.6831C40.3571 18.6831 41.9778 19.3048 43.2168 20.5555C45.7179 23.0781 45.6567 27.2903 43.0801 29.8451C41.7967 31.1198 40.1361 31.7576 38.4817 31.7576C36.853 31.7576 35.2315 31.1403 33.9809 29.9031C31.3786 27.3269 31.3857 23.3118 34.0022 20.6777C35.3211 19.3494 37.0296 18.6831 38.7222 18.6831ZM38.4293 29.763C39.6151 29.763 40.8133 29.2858 41.7363 28.3402C43.5061 26.5276 43.5248 23.7784 41.7781 21.9961C40.9118 21.1148 39.7775 20.6759 38.6335 20.6759C37.4503 20.6759 36.2575 21.1451 35.3424 22.0808C33.5682 23.8934 33.6046 26.8077 35.4232 28.5516C36.2663 29.3625 37.3429 29.763 38.4293 29.763ZM38.7231 17.5234V18.6831V17.5234C36.648 17.5234 34.6821 18.353 33.1865 19.8579C31.6919 21.3627 30.8727 23.3154 30.8815 25.3564C30.8904 27.367 31.7034 29.2751 33.1723 30.7282C34.5986 32.1394 36.4847 32.9163 38.4826 32.9163C40.5115 32.9163 42.4331 32.118 43.8922 30.6693C45.3762 29.1975 46.199 27.227 46.2079 25.1218C46.2167 23.071 45.4446 21.1576 44.0351 19.7357C42.6195 18.3093 40.7325 17.5234 38.7231 17.5234ZM38.4293 28.6034C37.6021 28.6034 36.8175 28.2876 36.2202 27.714C35.5696 27.0905 35.2039 26.2475 35.1897 25.3403C35.1755 24.4206 35.5217 23.5527 36.1652 22.8944C36.8326 22.212 37.7095 21.8364 38.6335 21.8364C39.5139 21.8364 40.3393 22.1825 40.9571 22.8114C42.2591 24.1396 42.2405 26.1681 40.9118 27.5285C40.2364 28.2216 39.3541 28.6034 38.4293 28.6034Z" fill="#F01900"/>
</g>
</g>
<defs>
<filter id="filter0_ddd" x="-2" y="-3" width="74" height="75" filterUnits="userSpaceOnUse" color-interpolation-filters="sRGB">
<feFlood flood-opacity="0" result="BackgroundImageFix"/>
<feColorMatrix in="SourceAlpha" type="matrix" values="0 0 0 0 0 0 0 0 0 0 0 0 0 0 0 0 0 0 127 0"/>
<feOffset/>
<feGaussianBlur stdDeviation="3.5"/>
<feColorMatrix type="matrix" values="0 0 0 0 0.941176 0 0 0 0 0.0980392 0 0 0 0 0 0 0 0 0.5 0"/>
<feBlend mode="normal" in2="BackgroundImageFix" result="effect1_dropShadow"/>
<feColorMatrix in="SourceAlpha" type="matrix" values="0 0 0 0 0 0 0 0 0 0 0 0 0 0 0 0 0 0 127 0"/>
<feOffset/>
<feGaussianBlur stdDeviation="2"/>
<feColorMatrix type="matrix" values="0 0 0 0 0.941176 0 0 0 0 0.0980392 0 0 0 0 0 0 0 0 0.8 0"/>
<feBlend mode="normal" in2="effect1_dropShadow" result="effect2_dropShadow"/>
<feColorMatrix in="SourceAlpha" type="matrix" values="0 0 0 0 0 0 0 0 0 0 0 0 0 0 0 0 0 0 127 0"/>
<feOffset/>
<feGaussianBlur stdDeviation="5"/>
<feColorMatrix type="matrix" values="0 0 0 0 0.941176 0 0 0 0 0.0980392 0 0 0 0 0 0 0 0 1 0"/>
<feBlend mode="normal" in2="effect2_dropShadow" result="effect3_dropShadow"/>
<feBlend mode="normal" in="SourceGraphic" in2="effect3_dropShadow" result="shape"/>
</filter>
<clipPath id="clip0">
<rect width="70" height="70" fill="white"/>
</clipPath>
</defs>
</svg>
