<svg width="544" height="120" viewBox="0 0 544 120" fill="none" xmlns="http://www.w3.org/2000/svg" preserveAspectRatio="none">
<rect x="12" y="25" width="520" height="72" rx="12" fill="#BC4E00" fill-opacity="0.15"/>
<g filter="url(#filter0_d)">
<rect x="13.5" y="26.5" width="517" height="69" rx="10.5" stroke="#FF6900" stroke-width="3"/>
</g>
<rect x="12.5" y="25.5" width="519" height="71" rx="11.5" stroke="#FF9043"/>
<rect x="13.5" y="26.5" width="517" height="69" rx="10.5" stroke="url(#paint0_linear)" stroke-opacity="0.6" stroke-width="3"/>
<defs>
<filter id="filter0_d" x="0" y="13" width="544" height="96" filterUnits="userSpaceOnUse" color-interpolation-filters="sRGB">
<feFlood flood-opacity="0" result="BackgroundImageFix"/>
<feColorMatrix in="SourceAlpha" type="matrix" values="0 0 0 0 0 0 0 0 0 0 0 0 0 0 0 0 0 0 127 0"/>
<feOffset/>
<feGaussianBlur stdDeviation="6"/>
<feColorMatrix type="matrix" values="0 0 0 0 1 0 0 0 0 0.411765 0 0 0 0 0 0 0 0 1 0"/>
<feBlend mode="normal" in2="BackgroundImageFix" result="effect1_dropShadow"/>
<feBlend mode="normal" in="SourceGraphic" in2="effect1_dropShadow" result="shape"/>
</filter>
<linearGradient id="paint0_linear" x1="190.5" y1="97" x2="263.5" y2="25" gradientUnits="userSpaceOnUse">
<stop offset="0.015625" stop-color="white" stop-opacity="0"/>
<stop offset="0.453125" stop-color="white"/>
<stop offset="1" stop-color="white" stop-opacity="0"/>
</linearGradient>
</defs>
</svg>
