<svg width="184" height="763" viewBox="0 0 184 763" fill="none" xmlns="http://www.w3.org/2000/svg" preserveAspectRatio="none">
<g filter="url(#filter0_d)">
<path d="M116.86 184.442V496.215H122.233V186.619L174 135.398V15.3283L168.627 10V133.21L116.86 184.442Z" fill="#05B4EC"/>
<path d="M116.86 578.569V266.795H122.233V576.391L174 627.612V747.682L168.627 753V629.8L116.86 578.569Z" fill="#05B4EC"/>
</g>
<path d="M78.7171 387.536H81.499V161.434L113.941 129.328L111.984 127.381L78.7171 160.293V387.536Z" fill="#05B4EC"/>
<path d="M113.19 132.363C111.081 132.363 109.371 130.671 109.371 128.584C109.371 126.497 111.081 124.805 113.19 124.805C115.298 124.805 117.008 126.497 117.008 128.584C117.008 130.671 115.298 132.363 113.19 132.363Z" fill="#05B4EC"/>
<path d="M111.984 623.54L113.941 621.593L81.499 589.487V363.385H78.7171V590.617L111.984 623.54Z" fill="#05B4EC"/>
<path d="M113.19 626.115C111.081 626.115 109.371 624.423 109.371 622.336C109.371 620.249 111.081 618.557 113.19 618.557C115.298 618.557 117.008 620.249 117.008 622.336C117.008 624.423 115.298 626.115 113.19 626.115Z" fill="#05B4EC"/>
<g opacity="0.8">
<path d="M155.183 212.706H152.634V562.605H155.183V212.706Z" fill="#05B4EC"/>
<path d="M169.473 560.082H152.634V562.606H169.473V560.082Z" fill="white" fill-opacity="0.7"/>
<path d="M162.756 551.236H152.634V553.771H162.756V551.236Z" fill="#05B4EC"/>
<path d="M162.756 542.401H152.634V544.926H162.756V542.401Z" fill="#05B4EC"/>
<path d="M162.756 533.556H152.634V536.08H162.756V533.556Z" fill="#05B4EC"/>
<path d="M165.644 524.71H152.634V527.245H165.644V524.71Z" fill="#05B4EC"/>
<path d="M169.473 515.487H152.634V518.022H169.473V515.487Z" fill="white" fill-opacity="0.7"/>
<path d="M162.756 506.652H152.634V509.177H162.756V506.652Z" fill="#05B4EC"/>
<path d="M162.756 497.807H152.634V500.331H162.756V497.807Z" fill="#05B4EC"/>
<path d="M162.756 488.961H152.634V491.496H162.756V488.961Z" fill="#05B4EC"/>
<path d="M165.644 480.126H152.634V482.65H165.644V480.126Z" fill="#05B4EC"/>
<path d="M169.473 470.903H152.634V473.428H169.473V470.903Z" fill="white" fill-opacity="0.7"/>
<path d="M162.756 462.058H152.634V464.592H162.756V462.058Z" fill="#05B4EC"/>
<path d="M162.756 453.223H152.634V455.747H162.756V453.223Z" fill="#05B4EC"/>
<path d="M162.756 444.377H152.634V446.901H162.756V444.377Z" fill="#05B4EC"/>
<path d="M165.644 435.531H152.634V438.056H165.644V435.531Z" fill="#05B4EC"/>
<path d="M169.473 426.309H152.634V428.843H169.473V426.309Z" fill="white" fill-opacity="0.7"/>
<path d="M162.756 417.474H152.634V419.998H162.756V417.474Z" fill="#05B4EC"/>
<path d="M162.756 408.628H152.634V411.152H162.756V408.628Z" fill="#05B4EC"/>
<path d="M162.756 399.782H152.634V402.317H162.756V399.782Z" fill="#05B4EC"/>
<path d="M165.644 390.947H152.634V393.472H165.644V390.947Z" fill="#05B4EC"/>
<path d="M169.473 381.725H152.634V384.249H169.473V381.725Z" fill="white" fill-opacity="0.7"/>
<path d="M162.756 372.879H152.634V375.403H162.756V372.879Z" fill="#05B4EC"/>
<path d="M162.756 364.034H152.634V366.569H162.756V364.034Z" fill="#05B4EC"/>
<path d="M162.756 355.198H152.634V357.723H162.756V355.198Z" fill="#05B4EC"/>
<path d="M165.644 346.353H152.634V348.877H165.644V346.353Z" fill="#05B4EC"/>
<path d="M169.473 337.131H152.634V339.655H169.473V337.131Z" fill="white" fill-opacity="0.7"/>
<path d="M162.756 328.285H152.634V330.82H162.756V328.285Z" fill="#05B4EC"/>
<path d="M162.756 319.45H152.634V321.975H162.756V319.45Z" fill="#05B4EC"/>
<path d="M162.756 310.604H152.634V313.129H162.756V310.604Z" fill="#05B4EC"/>
<path d="M165.644 301.759H152.634V304.294H165.644V301.759Z" fill="#05B4EC"/>
<path d="M169.473 292.536H152.634V295.071H169.473V292.536Z" fill="white" fill-opacity="0.7"/>
<path d="M162.756 283.701H152.634V286.225H162.756V283.701Z" fill="#05B4EC"/>
<path d="M162.756 274.855H152.634V277.38H162.756V274.855Z" fill="#05B4EC"/>
<path d="M162.756 266.01H152.634V268.544H162.756V266.01Z" fill="#05B4EC"/>
<path d="M165.644 257.175H152.634V259.699H165.644V257.175Z" fill="#05B4EC"/>
<path d="M169.473 247.952H152.634V250.476H169.473V247.952Z" fill="white" fill-opacity="0.7"/>
<path d="M162.756 239.106H152.634V241.631H162.756V239.106Z" fill="#05B4EC"/>
<path d="M162.756 230.261H152.634V232.796H162.756V230.261Z" fill="#05B4EC"/>
<path d="M162.756 221.426H152.634V223.95H162.756V221.426Z" fill="#05B4EC"/>
<path d="M165.644 212.58H152.634V215.104H165.644V212.58Z" fill="#05B4EC"/>
</g>
<path d="M36.7549 412.191V352.444V268.077L-2.28882e-05 231.414V125.844H1.35826V230.858L38.1132 267.521V352.444V412.191V492.14L1.35826 528.803V655.131H-2.28882e-05V528.237L36.7549 491.574V412.191Z" fill="white"/>
<path d="M25.7194 376.497V274.406L2.47955e-05 248.639L0.957821 247.68L27.0804 273.841V376.497V387.119V489.784L1.57282 515.319L0.61503 514.36L25.7194 489.219V387.119V376.497Z" fill="white"/>
<defs>
<filter id="filter0_d" x="106.86" y="0" width="77.1403" height="763" filterUnits="userSpaceOnUse" color-interpolation-filters="sRGB">
<feFlood flood-opacity="0" result="BackgroundImageFix"/>
<feColorMatrix in="SourceAlpha" type="matrix" values="0 0 0 0 0 0 0 0 0 0 0 0 0 0 0 0 0 0 127 0"/>
<feOffset/>
<feGaussianBlur stdDeviation="5"/>
<feColorMatrix type="matrix" values="0 0 0 0 0.0196078 0 0 0 0 0.705882 0 0 0 0 0.92549 0 0 0 1 0"/>
<feBlend mode="normal" in2="BackgroundImageFix" result="effect1_dropShadow"/>
<feBlend mode="normal" in="SourceGraphic" in2="effect1_dropShadow" result="shape"/>
</filter>
</defs>
</svg>
