<svg width="768" height="42" viewBox="0 0 768 42" fill="none" xmlns="http://www.w3.org/2000/svg" preserveAspectRatio="none">
<path d="M0 39.5H123L185.5 1H195" stroke="#05B4EC" stroke-width="2" stroke-linecap="square" stroke-linejoin="round"/>
<path d="M195 21H185.5L154.25 40.25" stroke="#05B4EC" stroke-width="2" stroke-linecap="square" stroke-linejoin="round"/>
<path d="M768 39.5H645L582.5 1H573" stroke="#05B4EC" stroke-width="2" stroke-linecap="square" stroke-linejoin="round"/>
<path d="M573 21H582.5L613.75 40.25" stroke="#05B4EC" stroke-width="2" stroke-linecap="square" stroke-linejoin="round"/>
</svg>
