<svg width="251" height="178" viewBox="0 0 251 178" fill="none" xmlns="http://www.w3.org/2000/svg">
<g filter="url(#filter0_d)">
<path fill-rule="evenodd" clip-rule="evenodd" d="M104.979 33H33V44.0439V44.0441V83.2686L36.9316 85.8136V142.348L39.3271 144.035V87.3642L44.6798 90.8292V44.0441H112.975L173.588 44.0441L169.573 38.5298H108.982L104.979 33ZM184.664 38.5298H177.411L181.409 44.0441H188.661L184.664 38.5298ZM191.884 38.5298H199.136L203.134 44.0441H195.882L191.884 38.5298ZM213.608 38.5298H206.355L210.353 44.0441H217.606L213.608 38.5298Z" fill="#F01900"/>
</g>
<defs>
<filter id="filter0_d" x="0" y="0" width="250.606" height="177.035" filterUnits="userSpaceOnUse" color-interpolation-filters="sRGB">
<feFlood flood-opacity="0" result="BackgroundImageFix"/>
<feColorMatrix in="SourceAlpha" type="matrix" values="0 0 0 0 0 0 0 0 0 0 0 0 0 0 0 0 0 0 127 0" result="hardAlpha"/>
<feOffset/>
<feGaussianBlur stdDeviation="16.5"/>
<feColorMatrix type="matrix" values="0 0 0 0 1 0 0 0 0 0.42 0 0 0 0 0 0 0 0 1 0"/>
<feBlend mode="normal" in2="BackgroundImageFix" result="effect1_dropShadow"/>
<feBlend mode="normal" in="SourceGraphic" in2="effect1_dropShadow" result="shape"/>
</filter>
</defs>
</svg>
