<svg width="1625" height="763" viewBox="0 0 1625 763" fill="none" xmlns="http://www.w3.org/2000/svg">
<g opacity="0.8" filter="url(#filter0_f)">
<rect x="70" y="152" width="1485" height="378" fill="url(#paint0_linear)"/>
</g>
<defs>
<filter id="filter0_f" x="0" y="82" width="1625" height="518" filterUnits="userSpaceOnUse" color-interpolation-filters="sRGB">
<feFlood flood-opacity="0" result="BackgroundImageFix"/>
<feBlend mode="normal" in="SourceGraphic" in2="BackgroundImageFix" result="shape"/>
<feGaussianBlur stdDeviation="35" result="effect1_foregroundBlur"/>
</filter>
<linearGradient id="paint0_linear" x1="1555" y1="530.012" x2="70" y2="530.012" gradientUnits="userSpaceOnUse">
<stop stop-color="#05B4EC" stop-opacity="0"/>
<stop offset="0.509551" stop-color="#00FFFF"/>
<stop offset="1" stop-color="#05B4EC" stop-opacity="0"/>
</linearGradient>
</defs>
</svg>
